<svg width="32" height="32" viewBox="0 0 32 32" fill="none" xmlns="http://www.w3.org/2000/svg">
<circle cx="16" cy="16" r="15.25" stroke="url(#paint0_linear_840_3378)" stroke-width="1.5"/>
<defs>
<linearGradient id="paint0_linear_840_3378" x1="24.6154" y1="9.53846" x2="8.92308" y2="29.2308" gradientUnits="userSpaceOnUse">
<stop stop-color="white"/>
<stop offset="0.596875" stop-color="#FFC6C6"/>
<stop offset="1" stop-color="#FF7474"/>
</linearGradient>
</defs>
</svg>
