<svg width="58" height="58" viewBox="0 0 58 58" fill="none" xmlns="http://www.w3.org/2000/svg">
<circle cx="29" cy="29" r="28.25" stroke="url(#paint0_linear_627_1278)" stroke-width="1.5"/>
<defs>
<linearGradient id="paint0_linear_627_1278" x1="44.6154" y1="17.2885" x2="16.1731" y2="52.9808" gradientUnits="userSpaceOnUse">
<stop stop-color="white" stop-opacity="0"/>
<stop offset="0.614583" stop-color="white"/>
<stop offset="1" stop-color="white"/>
</linearGradient>
</defs>
</svg>
